<?xml version="1.0" encoding="UTF-8"?>
<svg width="752pt" height="752pt" version="1.1" viewBox="0 0 752 752" xmlns="http://www.w3.org/2000/svg">
 <g>
  <path d="m377.98 582.66c-2 0.066406-3.7852-1.2539-4.3047-3.1875l-78.871-289.1c-0.375-1.3281-0.089844-2.75 0.76172-3.832 0.85156-1.0781 2.168-1.6875 3.543-1.6367h157.92c1.3555 0 2.6289 0.63672 3.4453 1.7227 0.8125 1.0664 1.082 2.4492 0.73047 3.7461l-79.047 289.1c-0.50781 1.8867-2.2227 3.1953-4.1758 3.1875zm-73.402-289.14 73.402 268.52 73.406-268.52z"/>
  <path d="m570.6 293.51h-385.2c-1.5273-0.007813-2.9375-0.82812-3.7031-2.1523-0.76953-1.332-0.76953-2.9727 0-4.3047l31.129-53.988c0.71484-1.25 2.0078-2.0547 3.4453-2.1523 1.4336-0.09375 2.8242 0.53516 3.6992 1.6797 2.4922 3.2227 4.5898 6.7344 6.2422 10.461 5.0703-10.938 13.945-19.66 24.973-24.539-5.4648-2.5664-10.422-6.0977-14.637-10.422-0.77344-0.85938-1.5938-1.7227-2.2812-2.582l-1.3789-1.6367c-1.2031-1.418-1.3594-3.4492-0.38672-5.0352 4.2969-7.0664 11.961-11.387 20.234-11.41h250.48c8.5195 0.054687 16.363 4.6484 20.578 12.055l50.5 87.613c0.76953 1.3281 0.76953 2.9648 0.007813 4.293-0.76172 1.332-2.1758 2.1562-3.707 2.1641zm-377.75-8.6094h370.25l-46.801-81.113c-2.6641-4.6211-7.5781-7.4844-12.914-7.5312h-250.65c-4.207 0.003907-8.2188 1.7695-11.066 4.8633l1.0781 1.207c7.5586 7.6367 17.84 11.973 28.586 12.055 1.1406 0 2.2383 0.45313 3.043 1.2578 0.80859 0.80859 1.2617 1.9023 1.2617 3.0469-0.003906 1.1484-0.46875 2.25-1.2891 3.0547-0.86328 0.73437-1.9336 1.1836-3.0586 1.293h-0.34375c-10.652 0.019532-20.871 4.2227-28.457 11.703-7.5859 7.4805-11.93 17.641-12.098 28.293 0 2.3789-1.9297 4.3047-4.3086 4.3047-2.375 0-4.3047-1.9258-4.3047-4.3047-0.015625-6.8672-1.7656-13.617-5.0781-19.633z"/>
  <path d="m457.03 293.51h-158.09c-1.3359 0.035156-2.6133-0.55078-3.457-1.5859-0.84375-1.0391-1.1562-2.4102-0.84766-3.7109l23.16-97.34c0.46875-1.9844 2.2656-3.3711 4.3047-3.3164h111.94c2.0391-0.054688 3.8398 1.332 4.3086 3.3164l23.035 97.301-0.003906-0.003906c0.30078 1.2812 0 2.6289-0.81641 3.6602-0.83984 1.0938-2.1523 1.7188-3.5312 1.6797zm-152.62-8.6094h147.2l-21.012-88.688-105.22-0.003906z"/>
  <path d="m377.98 582.66c-1.4375-0.007812-2.7812-0.73438-3.5703-1.9375l-95.02-142.64c-1.0625-1.4922-1.0625-3.4961 0-4.9922 2.5508-3.4922 5.7891-6.4219 9.5156-8.6094-2.3945-1.3984-4.5859-3.1211-6.5-5.125-0.5625-0.55859-1.0977-1.1484-1.5938-1.7656-1.2852-1.4961-2.4219-3.1094-3.4023-4.8203-1.0547 1.7812-2.2773 3.4531-3.6602 4.9922l-1.0352 1.0781h0.003906c-0.90625 0.90625-2.168 1.3633-3.4453 1.2461-1.293-0.11719-2.4648-0.8125-3.1875-1.8945l-84.254-126.57c-0.89062-1.3203-0.98047-3.0234-0.23438-4.4336 0.75-1.4062 2.2148-2.2852 3.8086-2.2812h385.2c1.5703 0.042968 2.9922 0.94141 3.707 2.3398 0.71875 1.3984 0.61719 3.0742-0.26562 4.375l-60.273 90.973c-0.75 1.1133-1.9805 1.8164-3.3242 1.8906s-2.6484-0.48047-3.5195-1.5039c-2.9922-3.5078-5.4453-7.4375-7.2773-11.668-2.0742 4.4453-4.7852 8.5625-8.0508 12.227-4.7617 5.3242-10.645 9.5273-17.219 12.312 5.457 2.5234 10.418 6.0078 14.637 10.289 1.0352 1.0352 2.0234 2.1523 2.9688 3.2734 1.3164 1.5039 1.4219 3.7148 0.25781 5.3398l-110.73 166.18c-0.83203 1.1094-2.1445 1.75-3.5312 1.7227zm-89.633-146.64 89.633 134.59 105.27-158.09-0.30078-0.34375v-0.003907c-7.6094-7.6797-17.949-12.043-28.762-12.141-2.375 0-4.3047-1.9258-4.3047-4.3047 0.007813-1.1484 0.47266-2.25 1.293-3.0547 0.80469-0.82422 1.9062-1.2891 3.0547-1.293 10.723 0.09375 21.043-4.0547 28.723-11.539 7.6758-7.4805 12.086-17.695 12.266-28.414 0-2.3789 1.9258-4.3047 4.3047-4.3047 1.1406 0 2.2383 0.45312 3.043 1.2617 0.80859 0.80469 1.2617 1.9023 1.2617 3.043 0 7.457 2.0547 14.773 5.9414 21.141l52.785-79.047h-369.09l76.676 115.12c2.0859-3.4492 3.2305-7.3828 3.3164-11.41 0-2.3789 1.9297-4.3047 4.3047-4.3047 2.3789 0 4.3047 1.9258 4.3047 4.3047-0.003906 5.5273 2 10.867 5.6406 15.023 0.29297 0.41797 0.625 0.80859 0.99219 1.1641 4.2734 4.3828 10.109 6.8906 16.23 6.9766 1.1406 0 2.2344 0.45312 3.043 1.2578 0.80859 0.80859 1.2617 1.9023 1.2617 3.0469 0 1.1406-0.45312 2.2344-1.2617 3.043-0.80859 0.80859-1.9023 1.2617-3.043 1.2617-6.2461 0.007812-12.223 2.5391-16.574 7.0156z"/>
  <path d="m498.83 444.89c-2.3789 0-4.3047-1.9297-4.3047-4.3047-0.011719-9.4062-3.25-18.523-9.1719-25.832-0.75781-0.94531-1.5625-1.8516-2.4102-2.7148-7.6094-7.6797-17.949-12.043-28.762-12.141-2.375 0-4.3047-1.9258-4.3047-4.3047 0.007813-1.1484 0.47266-2.25 1.293-3.0547 0.80469-0.82422 1.9062-1.2891 3.0547-1.293 10.723 0.09375 21.043-4.0547 28.723-11.539 7.6758-7.4805 12.086-17.695 12.266-28.414 0-2.3789 1.9258-4.3047 4.3047-4.3047 1.1406 0 2.2383 0.45312 3.043 1.2617 0.80859 0.80469 1.2617 1.9023 1.2617 3.043 0.003906 9.4453 3.3242 18.59 9.3867 25.832 0.15625 0.17578 0.30078 0.36328 0.42969 0.55859 0.6875 0.81641 1.293 1.4648 1.8516 2.0664 7.5391 7.6758 17.828 12.031 28.586 12.098 1.1445 0 2.2383 0.45312 3.0469 1.2617 0.80469 0.80859 1.2617 1.9023 1.2617 3.043-0.007813 1.1523-0.47266 2.2539-1.293 3.0586-0.84375 0.75781-1.9258 1.2031-3.0586 1.25h-0.12891c-10.656 0.042969-20.875 4.2578-28.461 11.738-7.5898 7.4844-11.945 17.645-12.137 28.301 0.023437 1.1875-0.44141 2.332-1.2891 3.1602-0.84766 0.83203-2.0039 1.2773-3.1875 1.2305zm-24.453-49.039c5.457 2.5234 10.418 6.0078 14.637 10.289 1.0352 1.0352 2.0234 2.1523 2.9688 3.2734 2.8633 3.5039 5.2227 7.3867 7.0195 11.539 5.0703-10.965 13.965-19.703 25.012-24.582-5.4492-2.5117-10.383-6.0156-14.551-10.336-0.81641-0.85938-1.5938-1.6797-2.2812-2.5391-0.19141-0.21484-0.36328-0.44531-0.51562-0.6875-2.9219-3.4688-5.3281-7.3438-7.1484-11.496-2.0742 4.4453-4.7891 8.5625-8.0508 12.227-4.7266 5.3086-10.562 9.5117-17.09 12.312z"/>
  <path d="m226.05 267.21c-2.375 0-4.3047-1.9258-4.3047-4.3047-0.007813-9.0898-3.0352-17.922-8.6094-25.102-0.94531-1.207-2.0234-2.3672-3.1016-3.4883v0.003906c-7.5625-7.668-17.859-12.02-28.629-12.102-2.3789 0-4.3047-1.9258-4.3047-4.3047 0.003906-1.1484 0.46875-2.25 1.293-3.0547 0.76172-0.88281 1.8906-1.3594 3.0547-1.293h0.25781c10.668 0.015625 20.918-4.1602 28.543-11.621 7.625-7.4648 12.016-17.621 12.23-28.289 0-2.375 1.9258-4.3047 4.3047-4.3047 1.1406 0 2.2344 0.45312 3.043 1.2617 0.80859 0.80859 1.2617 1.9023 1.2617 3.043-0.015626 9.043 3.0195 17.824 8.6094 24.93l1.3789 1.6367c0.64453 0.81641 1.25 1.4219 1.8086 2.0664 7.5586 7.6367 17.84 11.973 28.586 12.055 1.1406 0 2.2383 0.45312 3.043 1.2578 0.80859 0.80859 1.2617 1.9023 1.2617 3.0469 0 1.1406-0.45313 2.2344-1.2617 3.043-0.80469 0.80859-1.9023 1.2617-3.043 1.2617h-0.34375c-10.652 0.019531-20.871 4.2227-28.457 11.703-7.5859 7.4805-11.93 17.641-12.098 28.293-0.011718 1.1719-0.5 2.2891-1.3516 3.0938-0.85547 0.80469-2 1.2266-3.1719 1.168zm-24.496-49.168c5.4805 2.4883 10.457 5.9609 14.68 10.25 1.332 1.3594 2.582 2.7969 3.7461 4.3047 2.5117 3.2422 4.6094 6.7852 6.2422 10.547 5.0508-10.961 13.91-19.711 24.93-24.625-5.4492-2.5703-10.395-6.1016-14.594-10.422-0.77344-0.85938-1.5938-1.7227-2.2812-2.582l-1.3789-1.6367c-2.5078-3.2539-4.6172-6.793-6.2852-10.547-5.0781 10.965-13.992 19.691-25.059 24.539z"/>
  <path d="m277.28 456.38c-2.3789 0-4.3047-1.9297-4.3047-4.3086 0.023438-6.1445-2.3867-12.055-6.6992-16.434-4.3164-4.3789-10.188-6.875-16.336-6.9414-2.375 0-4.3047-1.9297-4.3047-4.3047 0-2.3789 1.9297-4.3086 4.3047-4.3086 6.3281 0.039062 12.395-2.5117 16.793-7.0586l0.6875-0.77344v-0.003906c3.7344-4.125 5.8594-9.457 5.9844-15.023 0-2.3789 1.9297-4.3047 4.3047-4.3047 2.3789 0 4.3047 1.9258 4.3047 4.3047-0.003906 5.5273 2 10.867 5.6406 15.023 0.29297 0.41797 0.625 0.80859 0.99219 1.1641 4.2734 4.3828 10.109 6.8906 16.23 6.9766 1.1406 0 2.2344 0.45312 3.043 1.2578 0.80859 0.80859 1.2617 1.9023 1.2617 3.0469 0 1.1406-0.45312 2.2344-1.2617 3.043-0.80859 0.80859-1.9023 1.2617-3.043 1.2617-6.1094 0.042969-11.957 2.4727-16.301 6.7656-4.3438 4.2969-6.8359 10.117-6.9492 16.223 0.023438 1.1641-0.42578 2.2891-1.2461 3.1172-0.81641 0.82812-1.9375 1.2891-3.1016 1.2773zm-11.41-31.859c2.4023 1.4062 4.6055 3.1289 6.5469 5.1211 1.9609 1.9688 3.6406 4.1992 4.9922 6.6289 0.66406-1.082 1.3828-2.1328 2.1523-3.1406 2.5859-3.3906 5.8203-6.2305 9.5156-8.3516-2.3945-1.3984-4.5859-3.1211-6.5-5.125-0.5625-0.55859-1.0977-1.1484-1.5938-1.7656-1.2812-1.4961-2.4219-3.1094-3.4023-4.8203-1.0547 1.7812-2.2773 3.4531-3.6602 4.9922l-1.0352 1.0781h0.003906c-2.0781 2.1133-4.4414 3.9219-7.0195 5.3828z"/>
  <path d="m377.77 382.8c-2.375 0-4.3047-1.9297-4.3047-4.3047 0.16016-8.0469-2.9453-15.812-8.6094-21.527-5.625-5.7148-13.293-8.9531-21.312-9-2.3789 0-4.3047-1.9258-4.3047-4.3047-0.019531-1.1602 0.43359-2.2773 1.25-3.0977 0.8125-0.80859 1.9102-1.2578 3.0547-1.25h0.25781c7.9922 0 15.66-3.1758 21.312-8.8281 5.6484-5.6523 8.8242-13.316 8.8242-21.309 0-2.3789 1.9297-4.3047 4.3047-4.3047 1.1445 0 2.2383 0.45312 3.0469 1.2617 0.80859 0.80469 1.2617 1.9023 1.2617 3.043-0.089844 7.3164 2.5156 14.41 7.3164 19.934 0.41406 0.52734 0.85938 1.0312 1.3359 1.5078 5.6133 5.7031 13.266 8.9414 21.27 8.9961 1.1406 0 2.2344 0.45312 3.043 1.2617 0.80859 0.80859 1.2617 1.9023 1.2617 3.043 0.003906 1.1445-0.44531 2.2461-1.25 3.0586-0.82422 0.81641-1.9414 1.2656-3.0977 1.2461-8.0508-0.17578-15.824 2.9336-21.527 8.6133-5.7227 5.6055-8.9727 13.258-9.043 21.266 0.10938 1.1719-0.26953 2.3359-1.0391 3.2227-0.77344 0.88672-1.875 1.418-3.0508 1.4727zm-16.445-38.746v-0.003906c3.5508 1.8945 6.8008 4.3008 9.6445 7.1484 2.8086 2.8672 5.1602 6.1484 6.9727 9.7305 3.7969-7.1211 9.6875-12.906 16.879-16.574-3.5664-1.8672-6.8203-4.2812-9.6445-7.1484-0.64844-0.64844-1.2539-1.3398-1.8086-2.0664-2.0508-2.3164-3.7891-4.8945-5.168-7.6641-1.4766 2.7891-3.2852 5.3906-5.3789 7.75-3.2617 3.5625-7.1602 6.4805-11.496 8.6094z"/>
 </g>
</svg>
